{
  "info": {
    "_postman_id": "5e6f0af4-8741-46da-885f-8f7ded538037",
    "name": "Connect-Vnext",
    "schema": "https://schema.getpostman.com/json/collection/v2.0.0/collection.json"
  },
  "item": [
    {
      "name": "Token",
      "event": [
        {
          "listen": "test",
          "script": {
            "exec": [
              "pm.test(\"Status code is 200\", function () {\r",
              "    pm.response.to.have.status(200);\r",
              "});\r",
              "\r",
              "var jsonData = pm.response.json();\r",
              "var accessToken=jsonData.access_token;\r",
              "\r",
              "\r",
              "pm.collectionVariables.set(\"token\", accessToken);\r",
              "\r",
              "pm.environment.set(\"token\", accessToken);"
            ],
            "type": "text/javascript",
            "id": "138fcca4-2616-4463-b04b-59503e51dff8"
          }
        },
        {
          "listen": "prerequest",
          "script": {
            "exec": [
              ""
            ],
            "type": "text/javascript",
            "id": "347e06b2-5e26-4961-b814-4112d3d31291"
          }
        }
      ],
      "_postman_id": "51df3ee2-361e-40af-ae83-7c52e60fc574",
      "protocolProfileBehavior": {
        "disableBodyPruning": true
      },
      "request": {
        "method": "POST",
        "header": [],
        "body": {
          "mode": "raw",
          "raw": "{\r\n    \"grant_type\": \"client_credentials\",\r\n     \"client_id\": \"{{clientId}}\",\r\n    \"client_secret\": \"{{clientSecret}}\"\r\n}",
          "options": {
            "raw": {
              "language": "json"
            }
          }
        },
        "url": "https://coret1.syhapp.com/vlive/hpca/oauth/token"
      },
      "response": []
    },
    {
      "name": "AlertNotification",
      "event": [
        {
          "listen": "test",
          "script": {
            "id": "ceb6c581-a507-49e9-ad85-753c90e3b7cc",
            "exec": [
              "pm.test(\"Status code is 200\", function () {\r",
              "    pm.response.to.have.status(200);\r",
              "});\r",
              "\r",
              "\r",
              "\r",
              "\r",
              ""
            ],
            "type": "text/javascript"
          }
        }
      ],
      "_postman_id": "a18b296f-e1c8-4908-ac87-541901a98e19",
      "protocolProfileBehavior": {
        "disableBodyPruning": true
      },
      "request": {
        "method": "GET",
        "header": [
          {
            "description": "(Required) ",
            "key": "Tenant-Id",
            "value": "{{tenantId}}"
          },
          {
            "key": "Accept",
            "value": "{{type}}"
          },
          {
            "key": "Content-Type",
            "value": "{{type}}",
            "type": "text"
          }
        ],
        "url": {
          "raw": "{{url}}/{{path}}/AlertNotifications?id=20561F05-B662-40D1-AA8A-41228FDAD289",
          "host": [
            "{{url}}"
          ],
          "path": [
            "{{path}}",
            "AlertNotifications"
          ],
          "query": [
            {
              "key": "id",
              "value": "20561F05-B662-40D1-AA8A-41228FDAD289",
              "description": "(Required) "
            }
          ]
        }
      },
      "response": [
        {
          "id": "f9ebac6b-aa41-4bbb-8288-d09c30852540",
          "name": "Untitled Example",
          "originalRequest": {
            "method": "GET",
            "header": [
              {
                "description": "Added as a part of security scheme: apikey",
                "key": "Authorization",
                "value": "<API Key>"
              },
              {
                "description": "(Required) ",
                "key": "Tenant-Id",
                "value": "enim cillum"
              }
            ],
            "url": {
              "raw": "{{baseUrl}}/AlertNotifications?id=urn:uuid:ee331b4b-3f53-f2de-ed07-0cdff1f2342c",
              "host": [
                "{{baseUrl}}"
              ],
              "path": [
                "AlertNotifications"
              ],
              "query": [
                {
                  "key": "id",
                  "value": "urn:uuid:ee331b4b-3f53-f2de-ed07-0cdff1f2342c"
                }
              ]
            }
          },
          "status": "OK",
          "code": 200,
          "_postman_previewlanguage": "json",
          "header": [
            {
              "key": "Content-Type",
              "value": "application/json"
            }
          ],
          "cookie": [],
          "responseTime": null,
          "body": "[\n  {\n    \"Id\": \"f911f770-215c-8d2f-63ee-639e4a35499b\",\n    \"AlertTopicId\": \"urn:uuid:cb436700-e62c-f7a7-453e-921f1605339a\",\n    \"AlertTopicName\": \"l\",\n    \"IsOperationalAlert\": false,\n    \"Content\": \"voluptate\",\n    \"CreatedByUserId\": \"urn:uuid:4b3bdf7d-cbae-e10b-616b-405cf3fb51cf\",\n    \"CreatedDate\": \"1978-09-13T16:58:03.300Z\",\n    \"EventDate\": \"2012-11-08T19:29:23.768Z\",\n    \"PatientId\": \"24a73023-e94c-2bca-7465-0245742b451a\",\n    \"QueryDateTime\": \"2001-08-09T07:10:35.977Z\"\n  },\n  {\n    \"Id\": \"02d7699d-7a83-abb0-8866-adf3ebe44d7b\",\n    \"AlertTopicId\": \"71192530-0fc7-8693-65c5-7d121f7f7708\",\n    \"AlertTopicName\": \"eu in Duis adipisicing sed\",\n    \"IsOperationalAlert\": true,\n    \"Content\": \"aliqua\",\n    \"CreatedByUserId\": \"66d79b1a-48d6-9f8d-2ba4-ee957c6be797\",\n    \"CreatedDate\": \"2000-09-13T04:57:57.861Z\",\n    \"EventDate\": \"1946-12-18T11:08:29.945Z\",\n    \"PatientId\": \"urn:uuid:9ea03c38-524e-3676-6e6d-4ec7b899b460\",\n    \"QueryDateTime\": \"1979-10-12T12:34:27.088Z\"\n  }\n]"
        }
      ]
    },
    {
      "name": "Comment",
      "event": [
        {
          "listen": "test",
          "script": {
            "id": "e8c4c250-41ab-4b05-a99f-9597d49ce8ae",
            "exec": [
              "pm.test(\"Status code is 200\", function () {\r",
              "    pm.response.to.have.status(200);\r",
              "});"
            ],
            "type": "text/javascript"
          }
        }
      ],
      "_postman_id": "9c30b4be-bc54-48f3-b84b-9bd1a3156b12",
      "protocolProfileBehavior": {
        "disableBodyPruning": true
      },
      "request": {
        "method": "GET",
        "header": [
          {
            "description": "(Required) ",
            "key": "Tenant-Id",
            "value": "{{tenantId}}"
          },
          {
            "key": "Accept",
            "value": "{{type}}"
          },
          {
            "key": "Content-Type",
            "value": "{{type}}",
            "type": "text"
          }
        ],
        "url": {
          "raw": "{{url}}/{{path}}/Comments?id=7A7F1F4D-6CD9-48DB-A0EF-395AAE396302",
          "host": [
            "{{url}}"
          ],
          "path": [
            "{{path}}",
            "Comments"
          ],
          "query": [
            {
              "key": "id",
              "value": "7A7F1F4D-6CD9-48DB-A0EF-395AAE396302",
              "description": "(Required) "
            }
          ]
        }
      },
      "response": [
        {
          "id": "023bd161-daa7-4702-a562-514ce4e0ad11",
          "name": "Untitled Example",
          "originalRequest": {
            "method": "GET",
            "header": [
              {
                "description": "Added as a part of security scheme: apikey",
                "key": "Authorization",
                "value": "<API Key>"
              },
              {
                "description": "(Required) ",
                "key": "Tenant-Id",
                "value": "enim cillum"
              }
            ],
            "url": {
              "raw": "{{baseUrl}}/Comments?id=urn:uuid:ee331b4b-3f53-f2de-ed07-0cdff1f2342c",
              "host": [
                "{{baseUrl}}"
              ],
              "path": [
                "Comments"
              ],
              "query": [
                {
                  "key": "id",
                  "value": "urn:uuid:ee331b4b-3f53-f2de-ed07-0cdff1f2342c"
                }
              ]
            }
          },
          "status": "OK",
          "code": 200,
          "_postman_previewlanguage": "json",
          "header": [
            {
              "key": "Content-Type",
              "value": "application/json"
            }
          ],
          "cookie": [],
          "responseTime": null,
          "body": "[\n  {\n    \"Id\": \"urn:uuid:5d439240-d51a-b769-011d-2332ae12d926\",\n    \"CreatedDate\": \"1954-02-18T03:12:55.227Z\",\n    \"Content\": \"laboris nisi in Duis sit\",\n    \"CreatedBy\": \"urn:uuid:015cdc52-1b18-00ea-ea5b-6e1ede2ed353\",\n    \"ExternalUserEmail\": \"eu elit sed\",\n    \"ParentId\": \"urn:uuid:eefcc599-31b7-3f48-ef9c-5f5642556963\",\n    \"ParentType\": \"elit do commodo mollit adipisicing\",\n    \"IsDeleted\": false,\n    \"TeamID\": \"urn:uuid:be263b7c-8110-1f2e-65c1-2ce1a60157ca\",\n    \"ExternalTeamName\": \"Excepteur voluptate culpa dolor\",\n    \"QueryDateTime\": \"1946-08-28T19:48:15.986Z\"\n  },\n  {\n    \"Id\": \"urn:uuid:31bcb931-b047-3706-f471-ec9ffea6cc3b\",\n    \"CreatedDate\": \"1979-10-02T12:50:53.227Z\",\n    \"Content\": \"Excepteur consequat\",\n    \"CreatedBy\": \"dc7363ee-25e6-5c5e-5c03-a660fa33c35f\",\n    \"ExternalUserEmail\": \"id Excepteur\",\n    \"ParentId\": \"urn:uuid:4c75f1ae-15f2-047c-fbcd-612aacf15d23\",\n    \"ParentType\": \"elit eiusmod quis et ut\",\n    \"IsDeleted\": true,\n    \"TeamID\": \"urn:uuid:989723cc-ee31-79a1-c5aa-b3670fb74e92\",\n    \"ExternalTeamName\": \"commodo aute nulla\",\n    \"QueryDateTime\": \"2005-07-11T11:45:43.897Z\"\n  }\n]"
        }
      ]
    },
    {
      "name": "Conversation",
      "event": [
        {
          "listen": "test",
          "script": {
            "id": "ea0c63f2-0646-45a8-82e9-ab9e4c5c6b84",
            "exec": [
              "pm.test(\"Status code is 200\", function () {\r",
              "    pm.response.to.have.status(200);\r",
              "});"
            ],
            "type": "text/javascript"
          }
        }
      ],
      "_postman_id": "484de05e-3a8d-4a24-9e43-14c05f4b986e",
      "protocolProfileBehavior": {
        "disableBodyPruning": true
      },
      "request": {
        "method": "GET",
        "header": [
          {
            "description": "(Required) ",
            "key": "Tenant-Id",
            "value": "{{tenantId}}"
          },
          {
            "key": "Accept",
            "value": "{{type}}"
          },
          {
            "key": "Content-Type",
            "value": "{{type}}",
            "type": "text"
          }
        ],
        "url": {
          "raw": "{{url}}/{{path}}/Conversations?Id=B9EB0721-0410-45D3-9F2F-79BA4CEB8240",
          "host": [
            "{{url}}"
          ],
          "path": [
            "{{path}}",
            "Conversations"
          ],
          "query": [
            {
              "key": "Id",
              "value": "B9EB0721-0410-45D3-9F2F-79BA4CEB8240",
              "description": "(Required) "
            }
          ]
        }
      },
      "response": [
        {
          "id": "a5f7185e-7e11-4246-adda-d4dc2bd0ba04",
          "name": "Untitled Example",
          "originalRequest": {
            "method": "GET",
            "header": [
              {
                "description": "Added as a part of security scheme: apikey",
                "key": "Authorization",
                "value": "<API Key>"
              },
              {
                "description": "(Required) ",
                "key": "Tenant-Id",
                "value": "enim cillum"
              }
            ],
            "url": {
              "raw": "{{baseUrl}}/Conversations?Id=urn:uuid:ee331b4b-3f53-f2de-ed07-0cdff1f2342c",
              "host": [
                "{{baseUrl}}"
              ],
              "path": [
                "Conversations"
              ],
              "query": [
                {
                  "key": "Id",
                  "value": "urn:uuid:ee331b4b-3f53-f2de-ed07-0cdff1f2342c"
                }
              ]
            }
          },
          "status": "OK",
          "code": 200,
          "_postman_previewlanguage": "json",
          "header": [
            {
              "key": "Content-Type",
              "value": "application/json"
            }
          ],
          "cookie": [],
          "responseTime": null,
          "body": "[\n  {\n    \"Id\": \"baafcc63-f7c2-39e1-fed2-0c4ca05eadb0\",\n    \"CreatedDate\": \"1999-10-07T01:25:57.475Z\",\n    \"Content\": \"eu\",\n    \"PatientId\": \"urn:uuid:446dfdfc-8ba7-664e-1181-99fc78bacdf5\",\n    \"TeamId\": \"7c57462e-013c-3f92-3c58-19fdae244e18\",\n    \"CreatedBy\": \"08ea2ce0-0ef9-8e65-702b-d99c48f4f5f0\",\n    \"Deleted\": true,\n    \"QueryDateTime\": \"2000-01-26T13:32:46.908Z\"\n  },\n  {\n    \"Id\": \"cd480fe4-b88a-8c7b-7b20-c3f9613dc054\",\n    \"CreatedDate\": \"1942-06-27T06:30:35.014Z\",\n    \"Content\": \"fugiat sunt id irure\",\n    \"PatientId\": \"urn:uuid:5da72a01-fe7f-d7a5-eeaf-1f8dd04ab084\",\n    \"TeamId\": \"633617fa-e609-0cd7-6f66-83b3926f450d\",\n    \"CreatedBy\": \"urn:uuid:4da9168f-0dd0-c20a-b3a7-f10df7f8815f\",\n    \"Deleted\": true,\n    \"QueryDateTime\": \"1964-02-28T17:32:11.127Z\"\n  }\n]"
        }
      ]
    },
    {
      "name": "File",
      "event": [
        {
          "listen": "test",
          "script": {
            "id": "c951b657-dca6-471a-a8f7-148b066e6919",
            "exec": [
              "pm.test(\"Status code is 200\", function () {\r",
              "    pm.response.to.have.status(200);\r",
              "});"
            ],
            "type": "text/javascript"
          }
        }
      ],
      "_postman_id": "854940aa-3643-4208-9007-e257a8f88cbf",
      "protocolProfileBehavior": {
        "disableBodyPruning": true
      },
      "request": {
        "method": "GET",
        "header": [
          {
            "description": "(Required) ",
            "key": "Tenant-Id",
            "value": "{{tenantId}}"
          },
          {
            "key": "Accept",
            "value": "{{type}}"
          },
          {
            "key": "Content-Type",
            "value": "{{type}}",
            "type": "text"
          }
        ],
        "url": {
          "raw": "{{url}}/{{path}}/Files?Id=02EEA782-CBA1-444C-9F66-A8F9E647201A",
          "host": [
            "{{url}}"
          ],
          "path": [
            "{{path}}",
            "Files"
          ],
          "query": [
            {
              "key": "Id",
              "value": "02EEA782-CBA1-444C-9F66-A8F9E647201A",
              "description": "(Required) "
            }
          ]
        }
      },
      "response": [
        {
          "id": "8b877d89-f6dc-476e-b031-eedba8c5cc11",
          "name": "Untitled Example",
          "originalRequest": {
            "method": "GET",
            "header": [
              {
                "description": "Added as a part of security scheme: apikey",
                "key": "Authorization",
                "value": "<API Key>"
              },
              {
                "description": "(Required) ",
                "key": "Tenant-Id",
                "value": "enim cillum"
              }
            ],
            "url": {
              "raw": "{{baseUrl}}/Files?Id=urn:uuid:ee331b4b-3f53-f2de-ed07-0cdff1f2342c",
              "host": [
                "{{baseUrl}}"
              ],
              "path": [
                "Files"
              ],
              "query": [
                {
                  "key": "Id",
                  "value": "urn:uuid:ee331b4b-3f53-f2de-ed07-0cdff1f2342c"
                }
              ]
            }
          },
          "status": "OK",
          "code": 200,
          "_postman_previewlanguage": "json",
          "header": [
            {
              "key": "Content-Type",
              "value": "application/json"
            }
          ],
          "cookie": [],
          "responseTime": null,
          "body": "[\n  {\n    \"ExternalIdentifier\": \"7d5c5819-6129-55be-b7e8-b0607716774d\",\n    \"FileName\": \"Excepteur dolore\",\n    \"Filesize\": 25272090,\n    \"Content\": \"irure non ullamco incididunt\",\n    \"CreatedDate\": \"1992-11-11T04:01:47.449Z\",\n    \"CreatedBy\": \"0d227d5c-12df-5984-3db8-b3483b219025\",\n    \"PatientId\": \"urn:uuid:6d7ed65d-7f98-9008-a91e-98a1a76bf0fa\",\n    \"TeamId\": \"urn:uuid:ae82243c-9ebb-d7b4-49d3-1045564eb229\",\n    \"MimeType\": \"dolore amet\",\n    \"QueryDateTime\": \"1955-03-17T23:40:27.947Z\"\n  },\n  {\n    \"ExternalIdentifier\": \"urn:uuid:d6ae4f71-9d3f-78e7-516e-e40a81d69378\",\n    \"FileName\": \"ut sed dolore sit\",\n    \"Filesize\": 21097796,\n    \"Content\": \"voluptate adipisicing in\",\n    \"CreatedDate\": \"1953-12-13T12:00:12.506Z\",\n    \"CreatedBy\": \"5aad1a24-a47a-352b-edb3-a61469a22a6e\",\n    \"PatientId\": \"72a016b2-d9f2-f3c8-3ff9-f76889530417\",\n    \"TeamId\": \"urn:uuid:0a59dd84-f0a3-c527-336f-1c7703984578\",\n    \"MimeType\": \"D\",\n    \"QueryDateTime\": \"1945-06-30T21:59:01.294Z\"\n  }\n]"
        }
      ]
    },
    {
      "name": "Handover Note",
      "event": [
        {
          "listen": "test",
          "script": {
            "id": "a31d67a3-7071-470f-a27c-fcfe90b9edbe",
            "exec": [
              "pm.test(\"Status code is 200\", function () {\r",
              "    pm.response.to.have.status(200);\r",
              "});"
            ],
            "type": "text/javascript"
          }
        }
      ],
      "_postman_id": "b47173ce-9c56-47f9-a4f1-0abd6dcec665",
      "protocolProfileBehavior": {
        "disableBodyPruning": true
      },
      "request": {
        "method": "GET",
        "header": [
          {
            "description": "(Required) ",
            "key": "Tenant-Id",
            "value": "{{tenantId}}"
          },
          {
            "key": "Accept",
            "value": "{{type}}"
          },
          {
            "key": "Content-Type",
            "value": "{{type}}",
            "type": "text"
          }
        ],
        "url": {
          "raw": "{{url}}/{{path}}/HandoverNotes?id=0223D603-1BE9-4ABF-8E4F-FD8FD73F53C1",
          "host": [
            "{{url}}"
          ],
          "path": [
            "{{path}}",
            "HandoverNotes"
          ],
          "query": [
            {
              "key": "id",
              "value": "0223D603-1BE9-4ABF-8E4F-FD8FD73F53C1",
              "description": "(Required) "
            }
          ]
        }
      },
      "response": [
        {
          "id": "3498ed36-e654-4548-8f77-522ef5cb720b",
          "name": "Untitled Example",
          "originalRequest": {
            "method": "GET",
            "header": [
              {
                "description": "Added as a part of security scheme: apikey",
                "key": "Authorization",
                "value": "<API Key>"
              },
              {
                "description": "(Required) ",
                "key": "Tenant-Id",
                "value": "enim cillum"
              }
            ],
            "url": {
              "raw": "{{baseUrl}}/HandoverNotes?id=urn:uuid:ee331b4b-3f53-f2de-ed07-0cdff1f2342c",
              "host": [
                "{{baseUrl}}"
              ],
              "path": [
                "HandoverNotes"
              ],
              "query": [
                {
                  "key": "id",
                  "value": "urn:uuid:ee331b4b-3f53-f2de-ed07-0cdff1f2342c"
                }
              ]
            }
          },
          "status": "OK",
          "code": 200,
          "_postman_previewlanguage": "json",
          "header": [
            {
              "key": "Content-Type",
              "value": "application/json"
            }
          ],
          "cookie": [],
          "responseTime": null,
          "body": "[\n  {\n    \"Id\": \"82876375-e506-1369-234a-2b2f83e89bac\",\n    \"PatientId\": \"urn:uuid:c3285133-8d82-7bc0-9057-6cc712ca4a49\",\n    \"ProfileId\": \"c882b524-c2ae-6737-ddf5-6564b6f34647\",\n    \"ProfileName\": \"est mollit officia in Lorem\",\n    \"CreatedBy\": \"dc06cbeb-5817-21c8-548f-edc6e1d8f043\",\n    \"CreatedDate\": \"1984-09-16T20:20:05.494Z\",\n    \"Content\": \"Lorem Ut dolore ex ea\",\n    \"TeamId\": \"urn:uuid:78acd05b-5249-7f94-65f8-9c306541fb23\",\n    \"IsActive\": true,\n    \"QueryDateTime\": \"2011-01-01T22:45:47.583Z\"\n  },\n  {\n    \"Id\": \"urn:uuid:bbe1292f-42ea-d3d8-d550-976fdf403caf\",\n    \"PatientId\": \"urn:uuid:d3278221-c2a6-15f5-2279-a62c33cf9724\",\n    \"ProfileId\": \"urn:uuid:1907bfcc-1a2f-a283-38cb-29bd4f2ebfe7\",\n    \"ProfileName\": \"ad nostrud\",\n    \"CreatedBy\": \"urn:uuid:f5ec504b-39e4-7fa0-1941-3273479c4ea0\",\n    \"CreatedDate\": \"1994-04-16T17:23:24.502Z\",\n    \"Content\": \"anim veniam \",\n    \"TeamId\": \"urn:uuid:906d7f3e-9e7b-4446-a6f7-30426dec2710\",\n    \"IsActive\": false,\n    \"QueryDateTime\": \"2012-02-18T23:18:45.595Z\"\n  }\n]"
        }
      ]
    },
    {
      "name": "Referral",
      "event": [
        {
          "listen": "test",
          "script": {
            "id": "e85ef7a1-cca7-4d39-bc54-5a0881293a94",
            "exec": [
              "pm.test(\"Status code is 200\", function () {\r",
              "    pm.response.to.have.status(200);\r",
              "});"
            ],
            "type": "text/javascript"
          }
        }
      ],
      "_postman_id": "09d6658c-56e7-4308-b61b-db06b6ec3fe8",
      "protocolProfileBehavior": {
        "disableBodyPruning": true
      },
      "request": {
        "method": "GET",
        "header": [
          {
            "description": "(Required) ",
            "key": "Tenant-Id",
            "value": "{{tenantId}}"
          },
          {
            "key": "Accept",
            "value": "{{type}}"
          },
          {
            "key": "Content-Type",
            "value": "{{type}}",
            "type": "text"
          }
        ],
        "url": {
          "raw": "{{url}}/{{path}}/Referrals?id=9CD86E30-B1AE-4A7A-A2C9-4054FD6C0166",
          "host": [
            "{{url}}"
          ],
          "path": [
            "{{path}}",
            "Referrals"
          ],
          "query": [
            {
              "key": "id",
              "value": "9CD86E30-B1AE-4A7A-A2C9-4054FD6C0166",
              "description": "(Required) "
            }
          ]
        }
      },
      "response": [
        {
          "id": "d3256694-557c-4dfc-bf7b-64014e7276aa",
          "name": "Untitled Example",
          "originalRequest": {
            "method": "GET",
            "header": [
              {
                "description": "Added as a part of security scheme: apikey",
                "key": "Authorization",
                "value": "<API Key>"
              },
              {
                "description": "(Required) ",
                "key": "Tenant-Id",
                "value": "enim cillum"
              }
            ],
            "url": {
              "raw": "{{baseUrl}}/Referrals?id=urn:uuid:ee331b4b-3f53-f2de-ed07-0cdff1f2342c",
              "host": [
                "{{baseUrl}}"
              ],
              "path": [
                "Referrals"
              ],
              "query": [
                {
                  "key": "id",
                  "value": "urn:uuid:ee331b4b-3f53-f2de-ed07-0cdff1f2342c"
                }
              ]
            }
          },
          "status": "OK",
          "code": 200,
          "_postman_previewlanguage": "json",
          "header": [
            {
              "key": "Content-Type",
              "value": "application/json"
            }
          ],
          "cookie": [],
          "responseTime": null,
          "body": "[\n  {\n    \"Id\": \"urn:uuid:6d016e93-0af1-13c1-1e33-d56f6035b7b5\",\n    \"Content\": \"sit nulla\",\n    \"Deleted\": true,\n    \"SendingTeamId\": \"urn:uuid:0a2cdc4a-ddf3-e3b3-8b5d-6ba35ff7430b\",\n    \"receivingTeamId\": \"urn:uuid:b86f836b-3ccd-1189-7812-25ba00414ef9\",\n    \"PatientId\": \"urn:uuid:9729aa2f-0570-325e-964f-d7bc0d9584f0\",\n    \"CreatedDate\": \"1945-03-15T14:18:20.459Z\",\n    \"CreatedByUserId\": \"urn:uuid:991e3080-0330-f1bc-2c57-d3f54902f9fd\",\n    \"Status\": \"et commodo amet eiusmod\",\n    \"ExternalTeamName\": \"labore occaecat laboris\",\n    \"ExternalNetwork\": \"tempor esse in incididunt\",\n    \"ExternalUserEmail\": \"officia magna dolor fugiat\",\n    \"QueryDateTime\": \"1951-12-12T08:11:05.259Z\"\n  },\n  {\n    \"Id\": \"cdf82dce-8d52-b85d-1d17-4a7e4f42b5e6\",\n    \"Content\": \"velit minim aliquip\",\n    \"Deleted\": true,\n    \"SendingTeamId\": \"urn:uuid:3fc9c711-5566-2d40-5670-5b4834f0d05c\",\n    \"receivingTeamId\": \"urn:uuid:0c3fe195-def2-d6d2-6f47-5981075009e8\",\n    \"PatientId\": \"urn:uuid:65991918-2c6e-8057-aee5-28a828067a5e\",\n    \"CreatedDate\": \"2008-12-06T15:49:45.655Z\",\n    \"CreatedByUserId\": \"953cbc7b-78d0-c044-556e-e7fa91b35036\",\n    \"Status\": \"cillum velit id nisi\",\n    \"ExternalTeamName\": \"nisi proident laborum id\",\n    \"ExternalNetwork\": \"elit sed\",\n    \"ExternalUserEmail\": \"eiusmod commodo esse\",\n    \"QueryDateTime\": \"2016-05-28T11:31:29.094Z\"\n  }\n]"
        }
      ]
    },
    {
      "name": "Referral Status",
      "event": [
        {
          "listen": "test",
          "script": {
            "id": "1f982669-1333-414e-b010-88a90a4152a0",
            "exec": [
              "pm.test(\"Status code is 200\", function () {\r",
              "    pm.response.to.have.status(200);\r",
              "});"
            ],
            "type": "text/javascript"
          }
        }
      ],
      "_postman_id": "87bb550c-156f-4717-a83f-d1576af9263b",
      "protocolProfileBehavior": {
        "disableBodyPruning": true
      },
      "request": {
        "method": "GET",
        "header": [
          {
            "description": "(Required) ",
            "key": "Tenant-Id",
            "value": "{{tenantId}}"
          },
          {
            "key": "Accept",
            "value": "{{type}}"
          },
          {
            "key": "Content-Type",
            "value": "{{type}}",
            "type": "text"
          }
        ],
        "url": {
          "raw": "{{url}}/{{path}}/ReferralStatuses?Id=2DF1BCCC-58A6-4516-84A5-50EBE96AF42D",
          "host": [
            "{{url}}"
          ],
          "path": [
            "{{path}}",
            "ReferralStatuses"
          ],
          "query": [
            {
              "key": "Id",
              "value": "2DF1BCCC-58A6-4516-84A5-50EBE96AF42D",
              "description": "(Required) "
            }
          ]
        }
      },
      "response": [
        {
          "id": "7b6d85bd-ccfe-4870-864a-dccfc5e79f84",
          "name": "Untitled Example",
          "originalRequest": {
            "method": "GET",
            "header": [
              {
                "description": "Added as a part of security scheme: apikey",
                "key": "Authorization",
                "value": "<API Key>"
              },
              {
                "description": "(Required) ",
                "key": "Tenant-Id",
                "value": "enim cillum"
              }
            ],
            "url": {
              "raw": "{{baseUrl}}/ReferralStatuses?Id=urn:uuid:ee331b4b-3f53-f2de-ed07-0cdff1f2342c",
              "host": [
                "{{baseUrl}}"
              ],
              "path": [
                "ReferralStatuses"
              ],
              "query": [
                {
                  "key": "Id",
                  "value": "urn:uuid:ee331b4b-3f53-f2de-ed07-0cdff1f2342c"
                }
              ]
            }
          },
          "status": "OK",
          "code": 200,
          "_postman_previewlanguage": "json",
          "header": [
            {
              "key": "Content-Type",
              "value": "application/json"
            }
          ],
          "cookie": [],
          "responseTime": null,
          "body": "[\n  {\n    \"Id\": \"urn:uuid:879df830-12c5-01e0-9160-ed67551b4226\",\n    \"ReferralId\": \"c7d2313e-201d-009a-5ece-df222c78efb5\",\n    \"Status\": \"dolore incididunt Ut Dui\",\n    \"DateApplied\": \"1963-06-13T05:18:31.221Z\",\n    \"AssociatedCommentId\": \"557540cd-01d1-1cbd-07ad-0edc372aae54\",\n    \"QueryDateTime\": \"1986-10-11T08:40:50.688Z\"\n  },\n  {\n    \"Id\": \"fa2e4ace-b431-c321-f7fc-d5d531440e8c\",\n    \"ReferralId\": \"0457fc79-bbc2-f3f7-fe99-07705ec85332\",\n    \"Status\": \"anim occaecat\",\n    \"DateApplied\": \"1956-10-05T23:52:03.087Z\",\n    \"AssociatedCommentId\": \"urn:uuid:8e37eecd-ccfd-1264-e5bb-0f9148f66750\",\n    \"QueryDateTime\": \"1943-06-15T01:16:24.705Z\"\n  }\n]"
        }
      ]
    },
    {
      "name": "Tag",
      "event": [
        {
          "listen": "test",
          "script": {
            "id": "47964e94-af34-4947-b16b-ec96d64821c0",
            "exec": [
              "pm.test(\"Status code is 200\", function () {\r",
              "    pm.response.to.have.status(200);\r",
              "});"
            ],
            "type": "text/javascript"
          }
        }
      ],
      "_postman_id": "bd8d7fe6-7664-4d51-b8a9-bed3ae5f621a",
      "protocolProfileBehavior": {
        "disableBodyPruning": true
      },
      "request": {
        "method": "GET",
        "header": [
          {
            "description": "(Required) ",
            "key": "Tenant-Id",
            "value": "{{tenantId}}"
          },
          {
            "key": "Accept",
            "value": "{{type}}"
          },
          {
            "key": "Content-Type",
            "value": "{{type}}",
            "type": "text"
          }
        ],
        "url": {
          "raw": "{{url}}/{{path}}/Tags?id=02866A6E-E758-471E-917C-F4CBB9628D50",
          "host": [
            "{{url}}"
          ],
          "path": [
            "{{path}}",
            "Tags"
          ],
          "query": [
            {
              "key": "id",
              "value": "02866A6E-E758-471E-917C-F4CBB9628D50",
              "description": "(Required) "
            }
          ]
        }
      },
      "response": [
        {
          "id": "bd994f7e-91a3-4ca0-9643-dcc8e3ddf238",
          "name": "Untitled Example",
          "originalRequest": {
            "method": "GET",
            "header": [
              {
                "description": "Added as a part of security scheme: apikey",
                "key": "Authorization",
                "value": "<API Key>"
              },
              {
                "description": "(Required) ",
                "key": "Tenant-Id",
                "value": "enim cillum"
              }
            ],
            "url": {
              "raw": "{{baseUrl}}/Tags?id=urn:uuid:ee331b4b-3f53-f2de-ed07-0cdff1f2342c",
              "host": [
                "{{baseUrl}}"
              ],
              "path": [
                "Tags"
              ],
              "query": [
                {
                  "key": "id",
                  "value": "urn:uuid:ee331b4b-3f53-f2de-ed07-0cdff1f2342c"
                }
              ]
            }
          },
          "status": "OK",
          "code": 200,
          "_postman_previewlanguage": "json",
          "header": [
            {
              "key": "Content-Type",
              "value": "application/json"
            }
          ],
          "cookie": [],
          "responseTime": null,
          "body": "[\n  {\n    \"Id\": \"2b3cf0e0-c15b-d6f7-4af6-151611b8f1f2\",\n    \"PatientId\": \"urn:uuid:8d13eee2-80a9-e6b0-1b04-9ba926194bfe\",\n    \"Label\": \"cillum cupidatat culpa\",\n    \"TeamId\": \"urn:uuid:fb88f878-60da-a3fe-d796-af747b093683\",\n    \"AddedDate\": \"2003-08-15T19:02:39.594Z\",\n    \"AddedByUserId\": \"8af2de21-2adf-85c2-0471-4780ee1feae4\",\n    \"IsDeleted\": true,\n    \"DeletedDate\": \"1979-04-06T18:19:34.650Z\",\n    \"DeletedByUserId\": \"urn:uuid:5d2677e0-e5e1-6a8d-1c7b-76c7ff7188e9\",\n    \"RemovalReasonId\": \"urn:uuid:2bebb635-cebe-863e-c7b5-2f62d0b3abae\",\n    \"RemovalReasonText\": \"nostrud minim Duis do occaecat\",\n    \"QueryDateTime\": \"1956-05-08T07:52:49.314Z\"\n  },\n  {\n    \"Id\": \"urn:uuid:dc77628a-90ec-1d49-bf97-5c94a41eaab1\",\n    \"PatientId\": \"urn:uuid:01011ba2-a291-4717-b82d-a23163731ba8\",\n    \"Label\": \"commodo deserunt in \",\n    \"TeamId\": \"25b337b5-7f14-2e86-770e-860293650403\",\n    \"AddedDate\": \"1943-08-23T17:45:52.399Z\",\n    \"AddedByUserId\": \"901fa5ee-8849-8c06-5e6f-5f3abc9b7fac\",\n    \"IsDeleted\": true,\n    \"DeletedDate\": \"1984-12-17T04:17:24.975Z\",\n    \"DeletedByUserId\": \"73627b42-b19f-1a32-7fb6-def2c6c5920b\",\n    \"RemovalReasonId\": \"34ee38b9-0eda-26c4-2b3b-3ddb99544f36\",\n    \"RemovalReasonText\": \"sed culpa ipsum\",\n    \"QueryDateTime\": \"1963-04-13T19:09:48.025Z\"\n  }\n]"
        }
      ]
    },
    {
      "name": "Team",
      "event": [
        {
          "listen": "test",
          "script": {
            "id": "cfe2b09a-67e8-414c-bde7-d44e2de53bc7",
            "exec": [
              "pm.test(\"Status code is 200\", function () {\r",
              "    pm.response.to.have.status(200);\r",
              "});"
            ],
            "type": "text/javascript"
          }
        }
      ],
      "_postman_id": "968211df-2e80-4896-bc94-c75af174612b",
      "protocolProfileBehavior": {
        "disableBodyPruning": true
      },
      "request": {
        "method": "GET",
        "header": [
          {
            "description": "(Required) ",
            "key": "Tenant-Id",
            "value": "{{tenantId}}"
          },
          {
            "key": "Accept",
            "value": "{{type}}"
          },
          {
            "key": "Content-Type",
            "value": "{{type}}",
            "type": "text"
          }
        ],
        "url": {
          "raw": "{{url}}/{{path}}/Teams?id=E8248491-5CF0-462B-98EF-43AF01CB554E",
          "host": [
            "{{url}}"
          ],
          "path": [
            "{{path}}",
            "Teams"
          ],
          "query": [
            {
              "key": "id",
              "value": "E8248491-5CF0-462B-98EF-43AF01CB554E",
              "description": "(Required) "
            }
          ]
        }
      },
      "response": [
        {
          "id": "e72d6359-688d-4a90-9fbb-35aa011bbeb6",
          "name": "Untitled Example",
          "originalRequest": {
            "method": "GET",
            "header": [
              {
                "description": "Added as a part of security scheme: apikey",
                "key": "Authorization",
                "value": "<API Key>"
              },
              {
                "description": "(Required) ",
                "key": "Tenant-Id",
                "value": "enim cillum"
              }
            ],
            "url": {
              "raw": "{{baseUrl}}/Teams?id=urn:uuid:ee331b4b-3f53-f2de-ed07-0cdff1f2342c",
              "host": [
                "{{baseUrl}}"
              ],
              "path": [
                "Teams"
              ],
              "query": [
                {
                  "key": "id",
                  "value": "urn:uuid:ee331b4b-3f53-f2de-ed07-0cdff1f2342c"
                }
              ]
            }
          },
          "status": "OK",
          "code": 200,
          "_postman_previewlanguage": "json",
          "header": [
            {
              "key": "Content-Type",
              "value": "application/json"
            }
          ],
          "cookie": [],
          "responseTime": null,
          "body": "[\n  {\n    \"Id\": \"09ffa2e8-c9b5-804e-ea8c-6492f79d15c1\",\n    \"Name\": \"enim laboris id sit in\",\n    \"Deleted\": false,\n    \"AcceptsExternalReferrals\": true,\n    \"AcceptsInternalReferrals\": false,\n    \"AcceptsTasks\": true,\n    \"IsOpen\": false,\n    \"CreatedBy\": \"urn:uuid:4b84d0c8-4ae3-4ea2-0147-5b7d6bd0db4d\",\n    \"CreatedDate\": \"2002-06-12T00:12:09.612Z\",\n    \"QueryDateTime\": \"1954-07-09T20:37:49.330Z\"\n  },\n  {\n    \"Id\": \"54e50f88-67e5-d5a9-331f-924be6713ad5\",\n    \"Name\": \"Duis culpa Ut qui est\",\n    \"Deleted\": true,\n    \"AcceptsExternalReferrals\": true,\n    \"AcceptsInternalReferrals\": true,\n    \"AcceptsTasks\": true,\n    \"IsOpen\": true,\n    \"CreatedBy\": \"urn:uuid:dd105f42-2107-3998-90a3-af87e2c9268d\",\n    \"CreatedDate\": \"1952-06-02T07:33:48.669Z\",\n    \"QueryDateTime\": \"2015-02-26T06:39:42.820Z\"\n  }\n]"
        }
      ]
    },
    {
      "name": "User",
      "event": [
        {
          "listen": "test",
          "script": {
            "id": "39070d15-b8ee-429a-b81f-f883a9e09166",
            "exec": [
              "pm.test(\"Status code is 200\", function () {\r",
              "    pm.response.to.have.status(200);\r",
              "});"
            ],
            "type": "text/javascript"
          }
        }
      ],
      "_postman_id": "6ce7b4a3-adfc-44d0-947e-f60caa7ada7a",
      "protocolProfileBehavior": {
        "disableBodyPruning": true
      },
      "request": {
        "method": "GET",
        "header": [
          {
            "description": "(Required) ",
            "key": "Tenant-Id",
            "value": "{{tenantId}}"
          },
          {
            "key": "Accept",
            "value": "{{type}}"
          },
          {
            "key": "Content-Type",
            "value": "{{type}}",
            "type": "text"
          }
        ],
        "url": {
          "raw": "{{url}}/{{path}}/Users?id=54889AC1-29C6-4B58-A582-4EB20E31C325",
          "host": [
            "{{url}}"
          ],
          "path": [
            "{{path}}",
            "Users"
          ],
          "query": [
            {
              "key": "id",
              "value": "54889AC1-29C6-4B58-A582-4EB20E31C325",
              "description": "(Required) "
            }
          ]
        }
      },
      "response": [
        {
          "id": "438d8846-211b-4bd7-8db5-4e9b43dbe663",
          "name": "Untitled Example",
          "originalRequest": {
            "method": "GET",
            "header": [
              {
                "description": "Added as a part of security scheme: apikey",
                "key": "Authorization",
                "value": "<API Key>"
              },
              {
                "description": "(Required) ",
                "key": "Tenant-Id",
                "value": "enim cillum"
              }
            ],
            "url": {
              "raw": "{{baseUrl}}/Users?id=urn:uuid:ee331b4b-3f53-f2de-ed07-0cdff1f2342c",
              "host": [
                "{{baseUrl}}"
              ],
              "path": [
                "Users"
              ],
              "query": [
                {
                  "key": "id",
                  "value": "urn:uuid:ee331b4b-3f53-f2de-ed07-0cdff1f2342c"
                }
              ]
            }
          },
          "status": "OK",
          "code": 200,
          "_postman_previewlanguage": "json",
          "header": [
            {
              "key": "Content-Type",
              "value": "application/json"
            }
          ],
          "cookie": [],
          "responseTime": null,
          "body": "[\n  {\n    \"Id\": \"urn:uuid:b647a083-9b60-8a41-c9cd-5a7597f8f936\",\n    \"Forename\": \"cillum aliquip esse magna\",\n    \"Surname\": \"Duis ex laboris nostrud\",\n    \"Username\": \"ex dolor\",\n    \"IsActiveMember\": false,\n    \"QueryDateTime\": \"2022-04-18T20:40:02.256Z\"\n  },\n  {\n    \"Id\": \"d952abc0-4838-cc52-876b-ee889a228fa2\",\n    \"Forename\": \"in in\",\n    \"Surname\": \"voluptate in\",\n    \"Username\": \"\",\n    \"IsActiveMember\": true,\n    \"QueryDateTime\": \"1987-10-16T20:00:19.582Z\"\n  }\n]"
        }
      ]
    },
    {
      "name": "Patient",
      "event": [
        {
          "listen": "test",
          "script": {
            "id": "466dfea4-54a5-4283-8467-be32178070ca",
            "exec": [
              "pm.test(\"Status code is 200\", function () {\r",
              "    pm.response.to.have.status(200);\r",
              "});"
            ],
            "type": "text/javascript"
          }
        }
      ],
      "_postman_id": "663e6eb2-0341-4ab6-9e16-b202fec5c6c3",
      "protocolProfileBehavior": {
        "disableBodyPruning": true
      },
      "request": {
        "method": "GET",
        "header": [
          {
            "key": "Tenant-Id",
            "value": "{{tenantId}}",
            "type": "text"
          },
          {
            "key": "Accept",
            "value": "{{type}}",
            "type": "text"
          },
          {
            "key": "Content-Type",
            "value": "{{type}}",
            "type": "text"
          }
        ],
        "url": {
          "raw": "{{url}}/{{patientpath}}/Patients?id=D2DB2505-32F0-44D5-AF33-1297C31877D7",
          "host": [
            "{{url}}"
          ],
          "path": [
            "",
            "{{patientpath}}",
            "Patients"
          ],
          "query": [
            {
              "key": "id",
              "value": "D2DB2505-32F0-44D5-AF33-1297C31877D7"
            }
          ]
        }
      },
      "response": []
    }
  ],
  "auth": {
    "type": "bearer",
    "bearer": {
      "token": "{{token}}"
    }
  },
  "event": [
    {
      "listen": "prerequest",
      "script": {
        "id": "d01cde1f-7d52-4c4c-abd9-2f1f4f8edcc5",
        "type": "text/javascript",
        "exec": [
          ""
        ]
      }
    },
    {
      "listen": "test",
      "script": {
        "id": "29626e9d-e267-4b22-a940-e3f206a99089",
        "type": "text/javascript",
        "exec": [
          ""
        ]
      }
    }
  ],
  "variable": [
    {
      "id": "6566cf88-7097-4725-8c43-eed032aa5586",
      "key": "path",
      "value": "/connectreportfeedservice/v1",
      "type": "string"
    },
    {
      "id": "b1a9d4df-90b9-4531-aae6-1652c02a928c",
      "key": "token",
      "value": "",
      "type": "string"
    },
    {
      "id": "47683900-c9ea-47df-b33c-db714dcbf163",
      "key": "type",
      "value": "application/json",
      "type": "string"
    },
    {
      "id": "78af6df6-e865-42c2-85c2-e7c5a862a5a2",
      "key": "tokenURL",
      "value": "https://coret1.syhapp.com/vlive/hpca/oauth/token",
      "type": "string"
    },
    {
      "id": "2a7859d7-422f-4388-944b-3792ac146d10",
      "key": "patientpath",
      "value": "connectpatientservice/v1",
      "type": "string"
    }
  ]
}